<svg width="24" height="24" viewBox="0 0 24 24" fill="none" xmlns="http://www.w3.org/2000/svg">
<g clip-path="url(#clip0)">
<path d="M23.3516 10.4375L13.5625 0.648438C13.1445 0.230469 12.5898 0 12 0C11.4102 0 10.8555 0.230469 10.4375 0.648438L0.652345 10.4336C0.648439 10.4336 0.644532 10.4375 0.640626 10.4414C-0.214843 11.3047 -0.214843 12.7031 0.644532 13.5625C1.03906 13.9531 1.55859 14.1836 2.11328 14.207C2.13281 14.207 2.15625 14.2109 2.17969 14.2109H2.57031V21.4141C2.57031 22.8398 3.73047 24 5.15625 24H8.98438C9.375 24 9.6875 23.6836 9.6875 23.2969V17.6484C9.6875 16.9961 10.2188 16.4688 10.8711 16.4688H13.1289C13.7773 16.4688 14.3086 16.9961 14.3086 17.6484V23.2969C14.3086 23.6836 14.625 24 15.0117 24H18.8398C20.2656 24 21.4258 22.8398 21.4258 21.4141V14.2109H21.7891C22.3789 14.2109 22.9336 13.9805 23.3516 13.5625C24.2109 12.7031 24.2148 11.3008 23.3516 10.4375Z" fill="#030015"/>
<path d="M23.3516 10.4375L13.5625 0.648438C13.1445 0.230469 12.5898 0 12 0V16.4688H13.1289C13.7773 16.4688 14.3086 16.9961 14.3086 17.6484V23.2969C14.3086 23.6836 14.625 24 15.0117 24H18.8398C20.2656 24 21.4258 22.8398 21.4258 21.4141V14.2109H21.7891C22.3789 14.2109 22.9336 13.9805 23.3516 13.5625C24.2109 12.7031 24.2148 11.3008 23.3516 10.4375Z" fill="#030015"/>
</g>
<defs>
<clipPath id="clip0">
<rect width="24" height="24" fill="white"/>
</clipPath>
</defs>
</svg>
