<svg width="750" height="552" viewBox="0 0 750 552" fill="none" xmlns="http://www.w3.org/2000/svg">
<g clip-path="url(#clip0_1702_72)">
<path d="M463.871 443.36H23.6024C18.7543 443.355 14.1064 441.426 10.6783 437.998C7.25023 434.57 5.32191 429.922 5.31641 425.074V109.208C5.32191 104.36 7.25023 99.7119 10.6783 96.2838C14.1064 92.8557 18.7543 90.9274 23.6024 90.9219H463.871C468.719 90.9274 473.367 92.8557 476.795 96.2838C480.223 99.7119 482.152 104.36 482.157 109.208V425.074C482.152 429.922 480.223 434.57 476.795 437.998C473.367 441.426 468.719 443.355 463.871 443.36ZM23.6024 100.546C21.306 100.549 19.1044 101.462 17.4805 103.086C15.8567 104.71 14.9433 106.911 14.9406 109.208V425.074C14.9432 427.371 15.8566 429.572 17.4805 431.196C19.1043 432.82 21.3059 433.734 23.6024 433.736H463.871C466.168 433.734 468.369 432.82 469.993 431.196C471.617 429.572 472.53 427.371 472.533 425.074V109.208C472.53 106.911 471.617 104.71 469.993 103.086C468.369 101.462 466.167 100.549 463.871 100.546H23.6024Z" fill="#E6E6E6"/>
<path d="M234.38 551.448C253.944 551.448 269.803 535.588 269.803 516.025C269.803 496.461 253.944 480.602 234.38 480.602C214.816 480.602 198.957 496.461 198.957 516.025C198.957 535.588 214.816 551.448 234.38 551.448Z" fill="#E6E6E6"/>
<path d="M234.38 543.182C249.379 543.182 261.538 531.024 261.538 516.025C261.538 501.026 249.379 488.867 234.38 488.867C219.382 488.867 207.223 501.026 207.223 516.025C207.223 531.024 219.382 543.182 234.38 543.182Z" fill="white"/>
<path d="M247.986 530.86C247.824 530.86 247.663 530.828 247.513 530.766C247.363 530.704 247.226 530.613 247.112 530.497L219.898 503.284C219.676 503.05 219.554 502.739 219.559 502.416C219.563 502.094 219.693 501.786 219.921 501.558C220.149 501.33 220.457 501.2 220.779 501.195C221.102 501.191 221.413 501.313 221.647 501.535L248.861 528.749C249.034 528.922 249.151 529.142 249.199 529.382C249.247 529.622 249.222 529.87 249.128 530.096C249.035 530.322 248.876 530.515 248.673 530.651C248.47 530.787 248.231 530.86 247.986 530.86H247.986Z" fill="#FFE61B"/>
<path d="M249.74 518.649C249.996 518.248 250.132 517.781 250.13 517.305C250.129 516.828 249.991 516.362 249.732 515.962C247.749 512.861 245.134 510.213 242.058 508.19C238.94 506.117 235.291 504.987 231.547 504.938C229.659 504.94 227.784 505.248 225.995 505.849C225.945 505.866 225.9 505.895 225.864 505.934C225.829 505.973 225.804 506.02 225.791 506.072C225.779 506.123 225.781 506.177 225.795 506.227C225.81 506.278 225.837 506.324 225.874 506.362L229.526 510.014C229.565 510.052 229.612 510.079 229.664 510.093C229.717 510.107 229.771 510.108 229.824 510.094C231.736 509.629 233.755 509.942 235.436 510.965C237.118 511.988 238.324 513.636 238.79 515.549L238.799 515.585C239.43 518.542 240.871 521.265 242.961 523.45L244.124 524.615C244.179 524.669 244.253 524.702 244.33 524.705C244.408 524.708 244.483 524.682 244.543 524.632C246.565 522.909 248.316 520.892 249.74 518.649Z" fill="#FFE61B"/>
<path d="M237.068 521.757C236.094 521.757 235.129 521.566 234.228 521.193C233.328 520.82 232.509 520.273 231.82 519.584C231.131 518.895 230.584 518.077 230.211 517.176C229.838 516.276 229.646 515.311 229.646 514.336C229.646 514.33 229.646 514.323 229.646 514.317C229.662 513.668 229.55 513.023 229.315 512.418C229.08 511.814 228.727 511.262 228.277 510.794L224.607 507.122C224.551 507.067 224.477 507.034 224.399 507.031C224.322 507.029 224.245 507.055 224.186 507.106C222.201 508.826 220.444 510.793 218.957 512.958C218.677 513.359 218.523 513.835 218.514 514.324C218.505 514.813 218.642 515.294 218.907 515.705C220.859 518.809 223.449 521.462 226.505 523.487C229.627 525.568 233.292 526.688 237.044 526.705C238.951 526.7 240.845 526.399 242.66 525.812C242.71 525.796 242.756 525.767 242.792 525.729C242.828 525.69 242.854 525.642 242.866 525.591C242.879 525.539 242.878 525.485 242.863 525.434C242.849 525.383 242.822 525.337 242.784 525.299L239.114 521.63C239.076 521.592 239.029 521.565 238.977 521.551C238.925 521.536 238.871 521.536 238.819 521.549C238.246 521.688 237.658 521.758 237.068 521.757V521.757Z" fill="#FFE61B"/>
<path d="M99.9816 551.448C119.545 551.448 135.405 535.588 135.405 516.025C135.405 496.461 119.545 480.602 99.9816 480.602C80.418 480.602 64.5586 496.461 64.5586 516.025C64.5586 535.588 80.418 551.448 99.9816 551.448Z" fill="#E6E6E6"/>
<path d="M99.9819 543.182C114.981 543.182 127.14 531.024 127.14 516.025C127.14 501.026 114.981 488.867 99.9819 488.867C84.9831 488.867 72.8242 501.026 72.8242 516.025C72.8242 531.024 84.9831 543.182 99.9819 543.182Z" fill="white"/>
<path d="M110.415 533.345C108.906 533.345 106.786 532.8 103.612 531.026C99.6664 528.918 96.0636 526.223 92.9265 523.034C89.6796 519.941 86.9681 516.331 84.9024 512.351C82.0543 507.172 82.5398 504.456 83.0825 503.296C83.7091 502.027 84.6943 500.97 85.916 500.256C86.6164 499.797 87.3576 499.404 88.1302 499.081C88.2075 499.048 88.2794 499.016 88.3436 498.987C88.5992 498.843 88.8828 498.754 89.1754 498.727C89.468 498.701 89.7629 498.737 90.0406 498.833C90.6576 499.13 91.2066 499.551 91.6533 500.07C93.2612 501.874 94.6177 503.888 95.6858 506.056C96.1249 506.806 96.3948 507.643 96.4767 508.508C96.4126 509.364 96.0659 510.174 95.491 510.812C95.3898 510.951 95.2892 511.083 95.1918 511.211C94.6035 511.984 94.4744 512.208 94.5594 512.607C94.7318 513.408 97.3444 514.105 99.4573 516.213C101.57 518.322 102.561 521.216 103.366 521.388C103.782 521.477 104.01 521.342 104.808 520.733C104.922 520.645 105.04 520.555 105.163 520.465C105.802 519.862 106.627 519.493 107.502 519.418H107.507C108.384 519.508 109.228 519.804 109.97 520.282C112.113 521.369 114.116 522.713 115.934 524.285C116.454 524.73 116.876 525.278 117.174 525.894C117.27 526.172 117.306 526.468 117.279 526.761C117.253 527.054 117.164 527.338 117.02 527.595C116.991 527.659 116.96 527.729 116.926 527.808C116.601 528.579 116.205 529.318 115.744 530.017C115.028 531.237 113.969 532.221 112.7 532.845C111.986 533.183 111.205 533.354 110.415 533.345V533.345Z" fill="#FFE61B"/>
<path d="M369.821 551.448C389.385 551.448 405.245 535.588 405.245 516.025C405.245 496.461 389.385 480.602 369.821 480.602C350.258 480.602 334.398 496.461 334.398 516.025C334.398 535.588 350.258 551.448 369.821 551.448Z" fill="#E6E6E6"/>
<path d="M369.822 543.182C384.82 543.182 396.979 531.024 396.979 516.025C396.979 501.026 384.82 488.867 369.822 488.867C354.823 488.867 342.664 501.026 342.664 516.025C342.664 531.024 354.823 543.182 369.822 543.182Z" fill="white"/>
<path d="M379.718 510.953C379.39 510.953 379.075 511.083 378.844 511.315C378.612 511.547 378.481 511.862 378.481 512.19V514.664C378.481 519.446 374.604 520.849 369.822 520.849C365.04 520.849 361.163 519.446 361.163 514.664V512.19C361.163 511.862 361.033 511.547 360.801 511.315C360.569 511.083 360.255 510.953 359.926 510.953C359.598 510.953 359.284 511.083 359.052 511.315C358.82 511.547 358.689 511.862 358.689 512.19V514.664C358.693 517.401 359.704 520.041 361.529 522.08C363.354 524.12 365.866 525.417 368.585 525.723V530.745C368.585 531.073 368.716 531.388 368.948 531.62C369.18 531.852 369.494 531.982 369.822 531.982H369.822C370.151 531.982 370.465 531.851 370.697 531.62C370.929 531.388 371.059 531.073 371.059 530.745V525.723C373.779 525.416 376.291 524.12 378.116 522.08C379.941 520.041 380.952 517.401 380.955 514.664V512.19C380.955 511.862 380.825 511.547 380.593 511.315C380.361 511.083 380.046 510.953 379.718 510.953V510.953Z" fill="#FFE61B"/>
<path d="M369.822 517.352C368.305 517.381 366.803 517.038 365.45 516.352C364.963 516.158 364.538 515.837 364.219 515.422C363.899 515.006 363.698 514.512 363.637 513.992V509.389C363.624 507.563 366.371 506.078 369.774 506.071C369.79 506.071 369.806 506.071 369.822 506.071C373.201 506.051 375.97 507.505 376.007 509.318C376.007 509.341 376.007 509.365 376.007 509.389V513.992C376.024 515.835 373.257 517.338 369.822 517.352Z" fill="#FFE61B"/>
<path d="M463.872 439.034H23.6035C19.9037 439.03 16.3566 437.559 13.7405 434.942C11.1243 432.326 9.65269 428.779 9.64844 425.079V109.213C9.65269 105.513 11.1243 101.966 13.7405 99.3499C16.3566 96.7337 19.9037 95.2621 23.6035 95.2578H463.872C467.572 95.2621 471.119 96.7337 473.735 99.3499C476.351 101.966 477.823 105.513 477.827 109.213V425.079C477.823 428.779 476.351 432.326 473.735 434.942C471.119 437.559 467.572 439.03 463.872 439.034V439.034Z" fill="white"/>
<path d="M241.582 291.007C267.319 291.007 288.183 270.143 288.183 244.406C288.183 218.669 267.319 197.805 241.582 197.805C215.845 197.805 194.98 218.669 194.98 244.406C194.98 270.143 215.845 291.007 241.582 291.007Z" fill="#FFB8B8"/>
<path d="M189.598 199.576C189.95 194.225 193.489 188.748 204.733 185.887C204.733 185.887 224.03 161.211 250.252 174.151C250.252 174.151 262.964 171.964 272.391 185.154C272.391 185.154 281.736 179.642 285.68 189.412C285.68 189.412 296.641 209.341 292.605 229.668C288.57 249.995 286.504 252.532 286.504 252.532C286.504 252.532 291.648 210.485 262.022 213.401C232.395 216.316 208.543 205.898 201.834 228.709C196.263 247.651 196.965 257.488 196.965 257.488C196.965 257.488 178.335 238.592 184.669 223.713C187.909 216.103 189.054 207.829 189.598 199.576Z" fill="#2F2E41"/>
<path d="M114.855 438.548H372.62C370.898 418.886 369.772 404.257 369.772 399.31C369.772 377.492 351.919 353.682 351.919 353.682L345.528 350.15L292.162 333.5L278.351 315.561C276.905 313.677 275.042 312.154 272.908 311.112C270.773 310.07 268.427 309.537 266.052 309.555L222.425 309.882C218.586 309.912 214.896 311.374 212.079 313.982L185.064 339.044L145.441 357.965L145.374 357.898L144.96 358.205L139.08 362.44L135.297 365.173C135.297 365.173 125.375 377.079 117.444 412.784C116.251 418.155 115.414 427.144 114.855 438.548Z" fill="#FFE61B"/>
<path d="M748.383 39.9129H1.08481C0.794938 39.9065 0.51908 39.7869 0.316315 39.5797C0.113549 39.3724 0 39.094 0 38.8041C0 38.5142 0.113549 38.2358 0.316315 38.0285C0.51908 37.8213 0.794938 37.7017 1.08481 37.6953H748.383C748.673 37.7017 748.949 37.8213 749.151 38.0285C749.354 38.2358 749.468 38.5142 749.468 38.8041C749.468 39.094 749.354 39.3724 749.151 39.5797C748.949 39.7869 748.673 39.9065 748.383 39.9129V39.9129Z" fill="#CACACA"/>
<path d="M25.4971 24.3932C32.0863 24.3932 37.4279 18.9326 37.4279 12.1966C37.4279 5.46061 32.0863 0 25.4971 0C18.908 0 13.5664 5.46061 13.5664 12.1966C13.5664 18.9326 18.908 24.3932 25.4971 24.3932Z" fill="#3F3D56"/>
<path d="M66.712 24.3932C73.3012 24.3932 78.6427 18.9326 78.6427 12.1966C78.6427 5.46061 73.3012 0 66.712 0C60.1228 0 54.7812 5.46061 54.7812 12.1966C54.7812 18.9326 60.1228 24.3932 66.712 24.3932Z" fill="#3F3D56"/>
<path d="M107.927 24.3932C114.516 24.3932 119.858 18.9326 119.858 12.1966C119.858 5.46061 114.516 0 107.927 0C101.338 0 95.9961 5.46061 95.9961 12.1966C95.9961 18.9326 101.338 24.3932 107.927 24.3932Z" fill="#3F3D56"/>
<path d="M723.688 7.45857H694.404C693.824 7.44584 693.272 7.2066 692.867 6.79211C692.461 6.37763 692.234 5.82084 692.234 5.241C692.234 4.66116 692.461 4.10437 692.867 3.68988C693.272 3.27539 693.824 3.03617 694.404 3.02344H723.688C724.268 3.03617 724.82 3.27539 725.225 3.68988C725.631 4.10437 725.858 4.66116 725.858 5.241C725.858 5.82084 725.631 6.37763 725.225 6.79211C724.82 7.2066 724.268 7.44584 723.688 7.45857Z" fill="#3F3D56"/>
<path d="M723.688 15.7789H694.404C693.824 15.7661 693.272 15.5269 692.867 15.1124C692.461 14.6979 692.234 14.1412 692.234 13.5613C692.234 12.9815 692.461 12.4247 692.867 12.0102C693.272 11.5957 693.824 11.3565 694.404 11.3438H723.688C724.268 11.3565 724.82 11.5957 725.225 12.0102C725.631 12.4247 725.858 12.9815 725.858 13.5613C725.858 14.1412 725.631 14.6979 725.225 15.1124C724.82 15.5269 724.268 15.7661 723.688 15.7789V15.7789Z" fill="#3F3D56"/>
<path d="M723.688 24.0914H694.404C693.824 24.0787 693.272 23.8394 692.867 23.4249C692.461 23.0104 692.234 22.4537 692.234 21.8738C692.234 21.294 692.461 20.7372 692.867 20.3227C693.272 19.9082 693.824 19.669 694.404 19.6562H723.688C724.268 19.669 724.82 19.9082 725.225 20.3227C725.631 20.7372 725.858 21.294 725.858 21.8738C725.858 22.4537 725.631 23.0104 725.225 23.4249C724.82 23.8394 724.268 24.0787 723.688 24.0914V24.0914Z" fill="#3F3D56"/>
<path d="M703.27 459.011H556.35C551.502 459.006 546.854 457.078 543.426 453.649C539.998 450.221 538.07 445.573 538.064 440.725V340.099C538.07 335.25 539.998 330.603 543.426 327.174C546.854 323.746 551.502 321.818 556.35 321.812H703.27C708.118 321.818 712.766 323.746 716.194 327.174C719.622 330.603 721.551 335.25 721.556 340.099V440.725C721.551 445.573 719.622 450.221 716.194 453.649C712.766 457.078 708.118 459.006 703.27 459.011V459.011ZM556.35 331.437C554.054 331.439 551.852 332.353 550.229 333.977C548.605 335.6 547.691 337.802 547.689 340.099V440.725C547.691 443.022 548.605 445.223 550.229 446.847C551.852 448.471 554.054 449.385 556.35 449.387H703.27C705.567 449.385 707.768 448.471 709.392 446.847C711.016 445.223 711.929 443.022 711.932 440.725V340.099C711.929 337.802 711.016 335.6 709.392 333.977C707.768 332.353 705.567 331.439 703.27 331.437H556.35Z" fill="#E6E6E6"/>
<path d="M703.271 454.686H556.352C552.652 454.682 549.105 453.21 546.489 450.594C543.872 447.978 542.401 444.431 542.396 440.731V340.104C542.401 336.404 543.872 332.857 546.489 330.24C549.105 327.624 552.652 326.153 556.352 326.148H703.271C706.971 326.153 710.518 327.624 713.135 330.24C715.751 332.857 717.222 336.404 717.227 340.104V440.731C717.222 444.431 715.751 447.978 713.135 450.594C710.518 453.21 706.971 454.682 703.271 454.686V454.686Z" fill="white"/>
<path d="M643.588 358.901C644.437 353.602 642.034 349.701 635.662 347.499C629.324 341.999 619.956 340.68 614.333 349.489C612.063 349.354 609.829 350.1 608.096 351.573C606.363 353.045 605.266 355.13 605.032 357.392C599.868 363.395 605.603 385.428 607.302 393.823L616.368 393.734L634.466 393.555L643.588 393.466L647.064 373.78C649.177 368.056 648.316 363.037 643.588 358.901Z" fill="#E6E6E6"/>
<path d="M676.51 441.781C678.878 440.269 681.386 438.989 684 437.958L658.222 407.351L641.185 402.991C641.046 402.913 640.908 402.832 640.771 402.75L612.031 403.852L611.909 403.729L593.788 412.594L568.01 442.396C570.554 443.393 572.998 444.628 575.31 446.085L572.649 456.202H591.094L596.001 449.07H596.247C596.247 448.947 596.258 448.824 596.258 448.701L599.702 443.693C599.78 447.74 599.668 451.909 599.388 456.202H656.757C656.668 452.636 656.646 449.092 656.646 445.571L663.062 454.883C663.543 454.179 664.057 453.519 664.571 452.848L665.834 456.202H680.523L677.002 442.81C676.902 442.44 676.736 442.091 676.51 441.781V441.781Z" fill="#E6E6E6"/>
<path d="M703.27 227.113H556.35C551.502 227.107 546.854 225.179 543.426 221.751C539.998 218.323 538.07 213.675 538.064 208.827V108.2C538.07 103.352 539.998 98.7041 543.426 95.276C546.854 91.8479 551.502 89.9196 556.35 89.9141H703.27C708.118 89.9196 712.766 91.8479 716.194 95.276C719.622 98.7041 721.551 103.352 721.556 108.2V208.827C721.551 213.675 719.622 218.323 716.194 221.751C712.766 225.179 708.118 227.107 703.27 227.113V227.113ZM556.35 99.5383C554.054 99.5409 551.852 100.454 550.229 102.078C548.605 103.702 547.691 105.904 547.689 108.2V208.827C547.691 211.123 548.605 213.325 550.229 214.949C551.852 216.573 554.054 217.486 556.35 217.489H703.27C705.567 217.486 707.768 216.573 709.392 214.949C711.016 213.325 711.929 211.123 711.932 208.827V108.2C711.929 105.904 711.016 103.702 709.392 102.078C707.768 100.454 705.567 99.5409 703.27 99.5383H556.35Z" fill="#E6E6E6"/>
<path d="M703.271 222.779H556.352C552.652 222.775 549.105 221.303 546.489 218.687C543.872 216.071 542.401 212.524 542.396 208.824V108.197C542.401 104.497 543.872 100.95 546.489 98.3342C549.105 95.7181 552.652 94.2464 556.352 94.2422H703.271C706.971 94.2464 710.518 95.7181 713.135 98.3342C715.751 100.95 717.222 104.497 717.227 108.197V208.824C717.222 212.524 715.751 216.071 713.135 218.687C710.518 221.303 706.971 222.775 703.271 222.779V222.779Z" fill="white"/>
<path d="M611.254 143.86C611.694 148.333 613.679 152.513 616.868 155.681C620.056 158.849 624.249 160.807 628.725 161.219C633.201 161.63 637.68 160.469 641.393 157.936C645.106 155.402 647.819 151.654 649.068 147.336C649.694 146.684 656.632 139.269 654.121 133.37C652.881 130.169 652.189 126.783 652.076 123.352C651.929 121.131 650.461 118.858 645.794 117.67C645.794 117.67 637.785 107.429 626.902 112.8C626.902 112.8 621.626 111.892 617.713 117.366C617.713 117.366 613.834 115.079 612.198 119.134C612.198 119.134 607.649 127.405 609.323 135.841C609.815 138.549 610.459 141.226 611.254 143.86V143.86Z" fill="#E6E6E6"/>
<path d="M682.021 213.837C678.73 199.017 674.612 194.076 674.612 194.076L673.042 192.942L670.601 191.184L670.43 191.056L670.402 191.084L653.957 183.231L642.744 172.83C641.575 171.747 640.044 171.141 638.45 171.128L620.343 170.992C619.358 170.985 618.384 171.206 617.498 171.638C616.612 172.071 615.839 172.703 615.239 173.485L609.507 180.931L587.358 187.841L584.705 189.307C584.705 189.307 577.296 199.189 577.296 208.244C577.296 210.298 576.828 216.369 576.113 224.53H683.096C683.001 220.944 682.642 217.37 682.021 213.837Z" fill="#E6E6E6"/>
<path d="M611.564 362.999H419.481C413.143 362.992 407.066 360.47 402.584 355.989C398.102 351.507 395.581 345.43 395.574 339.092V207.532C395.581 201.194 398.102 195.117 402.584 190.635C407.066 186.153 413.143 183.632 419.481 183.625H611.564C617.903 183.632 623.979 186.153 628.461 190.635C632.943 195.117 635.464 201.194 635.471 207.532V339.092C635.464 345.43 632.943 351.507 628.461 355.989C623.979 360.47 617.903 362.992 611.564 362.999ZM419.481 196.208C416.479 196.211 413.6 197.405 411.477 199.528C409.354 201.651 408.16 204.53 408.157 207.532V339.092C408.16 342.094 409.354 344.972 411.477 347.095C413.6 349.218 416.479 350.413 419.481 350.416H611.564C614.567 350.413 617.445 349.218 619.568 347.095C621.691 344.972 622.885 342.094 622.889 339.092V207.532C622.885 204.53 621.691 201.651 619.568 199.528C617.445 197.405 614.567 196.211 611.564 196.208H419.481Z" fill="#E6E6E6"/>
<path d="M611.56 189.289H419.48C414.642 189.296 410.004 191.22 406.583 194.642C403.162 198.063 401.237 202.701 401.23 207.539V339.099C401.237 343.936 403.163 348.573 406.584 351.993C410.005 355.412 414.643 357.335 419.48 357.339H611.56C616.398 357.335 621.036 355.412 624.457 351.993C627.878 348.573 629.804 343.936 629.81 339.099V207.539C629.804 202.701 627.879 198.063 624.458 194.642C621.037 191.22 616.399 189.296 611.56 189.289V189.289Z" fill="white"/>
<path d="M549.312 244.289C557.597 244.289 564.312 237.573 564.312 229.289C564.312 221.005 557.597 214.289 549.312 214.289C541.028 214.289 534.312 221.005 534.312 229.289C534.312 237.573 541.028 244.289 549.312 244.289Z" fill="#2F2E41"/>
<path d="M518.498 295.258C539.485 295.258 556.498 278.245 556.498 257.258C556.498 236.271 539.485 219.258 518.498 219.258C497.511 219.258 480.498 236.271 480.498 257.258C480.498 278.245 497.511 295.258 518.498 295.258Z" fill="#2F2E41"/>
<path d="M511.895 297.571C528.949 297.571 542.774 283.746 542.774 266.692C542.774 249.638 528.949 235.812 511.895 235.812C494.841 235.812 481.016 249.638 481.016 266.692C481.016 283.746 494.841 297.571 511.895 297.571Z" fill="#9E616A"/>
<path d="M500.254 228.234C506.252 226.19 512.69 225.795 518.893 227.091C525.097 228.386 530.838 231.325 535.517 235.598C540.196 239.872 543.641 245.325 545.492 251.386C547.343 257.447 547.531 263.894 546.037 270.053C529.82 270.489 513.028 269.848 497.959 260.317L496.199 249.989L491.809 258.955C486.368 259.883 480.983 260.495 476.824 255.598C477.993 249.386 480.772 243.588 484.884 238.786C488.995 233.984 494.295 230.346 500.254 228.234Z" fill="#2F2E41"/>
<path d="M571.794 192.577C582.952 190.189 595.17 195.196 601.98 204.352C608.79 213.508 610.16 226.247 606.079 236.904C601.917 247.775 592.928 255.933 584.524 263.987C576.119 272.042 567.658 281.034 565.136 292.398C563.319 300.583 564.822 309.155 569.316 316.233C573.809 323.311 580.927 328.319 589.107 330.157C578.581 332.154 567.617 334.138 557.281 331.322C546.944 328.506 537.49 319.353 538.083 308.656C538.51 300.949 543.772 294.511 548.349 288.295C555.804 278.165 562.011 267.173 566.833 255.556C569.133 250.012 571.146 244.092 570.5 238.124C569.917 233.679 567.921 229.538 564.807 226.313C561.692 223.087 557.623 220.948 553.2 220.211L550.44 216.337C551.361 204.964 560.636 194.965 571.794 192.577Z" fill="#2F2E41"/>
<path d="M582.742 356.492C580.742 336.112 569.442 336.912 569.442 336.912L539.602 331.082L526.532 309.382L493.722 308.102L482.042 328.582L458.042 331.582L458.022 331.922C455.642 332.102 447.062 333.982 445.342 351.492C445.182 353.102 444.962 355.072 444.682 357.342H582.832C582.802 357.042 582.772 356.762 582.742 356.492Z" fill="#2F2E41"/>
</g>
<defs>
<clipPath id="clip0_1702_72">
<rect width="749.467" height="551.451" fill="white"/>
</clipPath>
</defs>
</svg>
