<svg width="24" height="24" viewBox="0 0 24 24" fill="#ffff00" xmlns="http://www.w3.org/2000/svg">
<path d="M5 10.2C5 6.22355 8.22355 3 12.2 3V3C16.1764 3 19.4 6.22355 19.4 10.2V20.4071C19.4 20.6594 19.1179 20.809 18.909 20.6676L12.97 16.6463C12.5049 16.3315 11.8951 16.3315 11.43 16.6463L5.49096 20.6676C5.28206 20.809 5 20.6594 5 20.4071V10.2Z" stroke="#ffff00" stroke-width="1.5"/>
</svg>
